[gd_scene load_steps=5 format=2]

[ext_resource path="res://src/scenes/background.gd" type="Script" id=1]
[ext_resource path="res://src/scenes/eht_icon.tscn" type="PackedScene" id=2]

[sub_resource type="Animation" id=2]
resource_name = "day-to-night"
length = 0.5
tracks/0/type = "value"
tracks/0/path = NodePath("background_color:color")
tracks/0/interp = 1
tracks/0/loop_wrap = true
tracks/0/imported = false
tracks/0/enabled = true
tracks/0/keys = {
"times": PoolRealArray( 0, 0.5 ),
"transitions": PoolRealArray( 1, 1 ),
"update": 0,
"values": [ Color( 0.992157, 0.913725, 0.0627451, 1 ), Color( 0, 0.192157, 0.423529, 1 ) ]
}

[sub_resource type="Animation" id=3]
resource_name = "night-to-day"
length = 0.5
tracks/0/type = "value"
tracks/0/path = NodePath("background_color:color")
tracks/0/interp = 1
tracks/0/loop_wrap = true
tracks/0/imported = false
tracks/0/enabled = true
tracks/0/keys = {
"times": PoolRealArray( 0, 0.5 ),
"transitions": PoolRealArray( 1, 1 ),
"update": 0,
"values": [ Color( 0, 0.192157, 0.423529, 1 ), Color( 0.992157, 0.913725, 0.0627451, 1 ) ]
}

[node name="background" type="Control"]
margin_right = 40.0
margin_bottom = 40.0
script = ExtResource( 1 )
Eth = ExtResource( 2 )

[node name="background_animation" type="AnimationPlayer" parent="."]
anims/day-to-night = SubResource( 2 )
anims/night-to-day = SubResource( 3 )

[node name="background_color" type="ColorRect" parent="."]
anchor_right = 1.0
anchor_bottom = 1.0
margin_right = 535.0
margin_bottom = 848.0
color = Color( 0.992157, 0.913725, 0.0627451, 1 )
