[gd_scene load_steps=3 format=2]

[ext_resource path="res://src/scenes/eht_icon.gd" type="Script" id=1]
[ext_resource path="res://assets/eth.svg" type="Texture" id=2]

[node name="Node2D" type="Node2D"]
z_index = 1
z_as_relative = false
script = ExtResource( 1 )

[node name="eth" type="Sprite" parent="."]
modulate = Color( 1, 1, 1, 0.12549 )
scale = Vector2( 0.1, 0.1 )
texture = ExtResource( 2 )
flip_v = true
